report/topCollatz.vcd
$date
  Sat Jan 14 12:40:25 2017
$end
$version
  GHDL v0
$end
$timescale
  1 fs
$end
$var reg 8 ! count1[7:0] $end
$var reg 8 " data1[7:0] $end
$var reg 8 # count2[7:0] $end
$var reg 8 $ data2[7:0] $end
$var reg 8 % count3[7:0] $end
$var reg 8 & data3[7:0] $end
$var reg 8 ' count4[7:0] $end
$var reg 8 ( data4[7:0] $end
$var reg 8 ) count5[7:0] $end
$var reg 8 * data5[7:0] $end
$var reg 8 + count6[7:0] $end
$var reg 8 , data6[7:0] $end
$var reg 8 - count7[7:0] $end
$var reg 8 . data7[7:0] $end
$var reg 8 / count8[7:0] $end
$var reg 8 0 data8[7:0] $end
$var reg 8 1 count9[7:0] $end
$var reg 8 2 data9[7:0] $end
$var reg 8 3 count10[7:0] $end
$var reg 8 4 data10[7:0] $end
$var reg 8 5 count11[7:0] $end
$var reg 8 6 data11[7:0] $end
$var reg 8 7 count12[7:0] $end
$var reg 8 8 data12[7:0] $end
$var reg 8 9 count13[7:0] $end
$var reg 8 : data13[7:0] $end
$var reg 8 ; count14[7:0] $end
$var reg 8 < data14[7:0] $end
$var reg 8 = count15[7:0] $end
$var reg 8 > data15[7:0] $end
$var reg 8 ? count16[7:0] $end
$var reg 8 @ data16[7:0] $end
$var reg 1 A clk $end
$var reg 1 B reset $end
$var reg 1 C go $end
$var reg 8 D din[7:0] $end
$var reg 8 E dout[7:0] $end
$var reg 1 F done $end
$var reg 1 G issorting $end
$scope module cl $end
$var reg 1 H clk $end
$var reg 1 I reset $end
$var reg 1 J go $end
$var reg 8 K din[7:0] $end
$var reg 8 L dout[7:0] $end
$var reg 1 M done $end
$var reg 16 N dreg[15:0] $end
$var reg 8 O counter[7:0] $end
$var reg 2 P ccycle[1:0] $end
$var reg 1 Q nodata $end
$var reg 1 R tobeend $end
$upscope $end
$enddefinitions $end
#0
b00000000 !
b00000000 "
b00000000 #
b00000000 $
b00000000 %
b00000000 &
b00000000 '
b00000000 (
b00000000 )
b00000000 *
b00000000 +
b00000000 ,
b00000000 -
b00000000 .
b00000000 /
b00000000 0
b00000000 1
b00000000 2
b00000000 3
b00000000 4
b00000000 5
b00000000 6
b00000000 7
b00000000 8
b00000000 9
b00000000 :
b00000000 ;
b00000000 <
b00000000 =
b00000000 >
b00000000 ?
b00000000 @
1A
0B
0C
b00000000 D
b00000000 E
0F
1G
1H
0I
0J
b00000000 K
b00000000 L
0M
b0000000000000000 N
b00000000 O
b00 P
1Q
1R
#5000000
1B
b00000001 D
1I
b00000001 K
#10000000
0A
0H
#20000000
1A
1H
#30000000
0A
0H
#40000000
1A
1H
#45000000
0B
1C
0I
1J
#50000000
0A
0H
#60000000
1A
1H
0M
b01 P
#70000000
0A
0H
#80000000
1A
1H
0M
b0000000000000001 N
b11 P
#85000000
0C
0J
#90000000
0A
0H
#100000000
1A
XF
1H
XM
b0000000000000000 N
b10 P
#110000000
0A
0H
#120000000
1A
0F
1H
0M
b00 P
